                y
             vvyyy
           gvvvggyyyy
   vvvv   gvvngvvgyy
  v    v  ggngnvvvg
 v  v   v  ggnnvvvgyyy
 v      v  vgnvvvgggy
 v v    v    gvvyygg
 v v    v     ggyyygyy
 v v    v      gyngrr
 v      v        grrrr
  v    v  gggggggrrrr
   vvvv    vvvvgggrrg  g
         rvvvvrrgggggyyg
        rrvvvrrrrgggggg
         rrvvvrrrrgggg
